%YAML 1.1
%TAG !u! tag:unity3d.com,2011:
--- !u!21 &2100000
Material:
  serializedVersion: 3
  m_ObjectHideFlags: 0
  m_PrefabParentObject: {fileID: 0}
  m_PrefabInternal: {fileID: 0}
  m_Name: Flow_River
  m_Shader: {fileID: 4800000, guid: 76d3e7c82889f3b43996f265c4232caa, type: 3}
  m_ShaderKeywords: []
  m_SavedProperties:
    serializedVersion: 2
    m_TexEnvs:
      data:
        first:
          name: _MainTex
        second:
          m_Texture: {fileID: 2800000, guid: 56d3020f12b888f4c938cde01a10e312, type: 3}
          m_Scale: {x: 1, y: 1}
          m_Offset: {x: 0, y: 0}
      data:
        first:
          name: _FlowTexture
        second:
          m_Texture: {fileID: 2800000, guid: 9f75a42e33e83e64eb506fb4666b546a, type: 3}
          m_Scale: {x: 5, y: 5}
          m_Offset: {x: 0, y: 0}
      data:
        first:
          name: _FlowMap
        second:
          m_Texture: {fileID: 2800000, guid: 01d69c886d5f7604994f7949c9dba933, type: 3}
          m_Scale: {x: 1, y: 1}
          m_Offset: {x: 0, y: 0}
      data:
        first:
          name: _Noise
        second:
          m_Texture: {fileID: 2800000, guid: f05704a87fc6c1f42b1102acfe1548a8, type: 3}
          m_Scale: {x: 5, y: 5}
          m_Offset: {x: 0, y: 0}
      data:
        first:
          name: _FlowBump
        second:
          m_Texture: {fileID: 2800000, guid: dd6b297d162ae8049952057a3d1bd529, type: 3}
          m_Scale: {x: 15, y: 15}
          m_Offset: {x: 0, y: 0}
      data:
        first:
          name: _Cube
        second:
          m_Texture: {fileID: 8900000, guid: 7cd052035c33f3d40a73df57d63f518d, type: 2}
          m_Scale: {x: 1, y: 1}
          m_Offset: {x: 0, y: 0}
    m_Floats:
      data:
        first:
          name: _Shininess
        second: 3.86656761
      data:
        first:
          name: _Emission
        second: 0
      data:
        first:
          name: _Strength
        second: .0384615399
      data:
        first:
          name: _RevealSize
        second: .961538434
      data:
        first:
          name: _DistorScale
        second: 0
    m_Colors:
      data:
        first:
          name: _Color
        second: {r: 1, g: 0, b: 0, a: 1}
      data:
        first:
          name: _SpecColor
        second: {r: 1, g: .812963128, b: .522388101, a: 1}
      data:
        first:
          name: _BaseColor
        second: {r: 1, g: 1, b: 1, a: .745098054}
      data:
        first:
          name: _FlowColor
        second: {r: .850746274, g: .924851298, b: 1, a: .701960802}
      data:
        first:
          name: _ReflColor
        second: {r: 1, g: 1, b: 1, a: 1}
