%YAML 1.1
%TAG !u! tag:unity3d.com,2011:
--- !u!21 &2100000
Material:
  serializedVersion: 3
  m_ObjectHideFlags: 0
  m_PrefabParentObject: {fileID: 0}
  m_PrefabInternal: {fileID: 0}
  m_Name: Flow_Volcano
  m_Shader: {fileID: 4800000, guid: 66e512fa70617d943a31bf468f7d92eb, type: 3}
  m_ShaderKeywords: []
  m_SavedProperties:
    serializedVersion: 2
    m_TexEnvs:
      data:
        first:
          name: _MainTex
        second:
          m_Texture: {fileID: 2800000, guid: 29cab3c7d99eea44691173f7fa5e51f2, type: 3}
          m_Scale: {x: 1, y: 1}
          m_Offset: {x: 0, y: 0}
      data:
        first:
          name: _BumpMap
        second:
          m_Texture: {fileID: 2800000, guid: a5cbbe2e1e3072f47bd715f86d2a550b, type: 3}
          m_Scale: {x: 1, y: 1}
          m_Offset: {x: 0, y: 0}
      data:
        first:
          name: _FlowTexture
        second:
          m_Texture: {fileID: 2800000, guid: f05704a87fc6c1f42b1102acfe1548a8, type: 3}
          m_Scale: {x: 15, y: 15}
          m_Offset: {x: 0, y: 0}
      data:
        first:
          name: _FlowMap
        second:
          m_Texture: {fileID: 2800000, guid: b6a4a2b13da861045b74779a5e92369f, type: 3}
          m_Scale: {x: 1, y: 1}
          m_Offset: {x: 0, y: 0}
      data:
        first:
          name: _Noise
        second:
          m_Texture: {fileID: 2800000, guid: f05704a87fc6c1f42b1102acfe1548a8, type: 3}
          m_Scale: {x: 1, y: 1}
          m_Offset: {x: 0, y: 0}
      data:
        first:
          name: _FlowBump
        second:
          m_Texture: {fileID: 2800000, guid: dd6b297d162ae8049952057a3d1bd529, type: 3}
          m_Scale: {x: 10, y: 10}
          m_Offset: {x: 0, y: 0}
      data:
        first:
          name: _Cube
        second:
          m_Texture: {fileID: 8900000, guid: 1c4624eb0125766409ebd1af8073b5b5, type: 2}
          m_Scale: {x: 1, y: 1}
          m_Offset: {x: 0, y: 0}
      data:
        first:
          name: _BaseTex
        second:
          m_Texture: {fileID: 2800000, guid: 55e54ae4a44ff1143b6d70d2595c6346, type: 3}
          m_Scale: {x: 1, y: 1}
          m_Offset: {x: 0, y: 0}
      data:
        first:
          name: _BaseBumpMap
        second:
          m_Texture: {fileID: 2800000, guid: 52ba7138bba2b77449ae27d46f6930b8, type: 3}
          m_Scale: {x: 1, y: 1}
          m_Offset: {x: 0, y: 0}
      data:
        first:
          name: _BumpMap2
        second:
          m_Texture: {fileID: 2800000, guid: 52ba7138bba2b77449ae27d46f6930b8, type: 3}
          m_Scale: {x: 1, y: 1}
          m_Offset: {x: 0, y: 0}
      data:
        first:
          name: _NoiseMap
        second:
          m_Texture: {fileID: 2800000, guid: 2e0c90379ca20714db4ad06fa09b09a0, type: 3}
          m_Scale: {x: 1, y: 1}
          m_Offset: {x: 0, y: 0}
    m_Floats:
      data:
        first:
          name: _Shininess
        second: 8.21927166
      data:
        first:
          name: _Emission
        second: 1.03099883
      data:
        first:
          name: _Parallax
        second: -.0507462695
      data:
        first:
          name: _Strength
        second: .50746268
      data:
        first:
          name: _FlowShininess
        second: .078125
      data:
        first:
          name: _Cycle
        second: 1
      data:
        first:
          name: _Speed
        second: .0500000007
    m_Colors:
      data:
        first:
          name: _Color
        second: {r: 1, g: 1, b: 1, a: 1}
      data:
        first:
          name: _SpecColor
        second: {r: 1, g: 1, b: 1, a: .709803939}
      data:
        first:
          name: _BaseColor
        second: {r: 1, g: 0, b: 0, a: 1}
      data:
        first:
          name: _FlowColor
        second: {r: 1, g: .944055915, b: 0, a: .482352942}
      data:
        first:
          name: _ReflColor
        second: {r: 1, g: 1, b: 1, a: 1}
      data:
        first:
          name: _FlowSpecularColor
        second: {r: .5, g: .5, b: .5, a: 1}
      data:
        first:
          name: _ReflectColor
        second: {r: 1, g: 1, b: 1, a: .5}
      data:
        first:
          name: _MainColor
        second: {r: 1, g: 1, b: 1, a: 1}
